*Heading 
Block8x8x8_C3D8 
*NODE,NSET=Facez_0 
111, 0.00000000e+00, 0.00000000e+00, 0.00000000e+00 
112, 6.25000000e+00, 0.00000000e+00, 0.00000000e+00 
113, 1.25000000e+01, 0.00000000e+00, 0.00000000e+00 
114, 1.87500000e+01, 0.00000000e+00, 0.00000000e+00 
115, 2.50000000e+01, 0.00000000e+00, 0.00000000e+00 
116, 3.12500000e+01, 0.00000000e+00, 0.00000000e+00 
117, 3.75000000e+01, 0.00000000e+00, 0.00000000e+00 
118, 4.37500000e+01, 0.00000000e+00, 0.00000000e+00 
119, 5.00000000e+01, 0.00000000e+00, 0.00000000e+00 
121, 0.00000000e+00, 6.25000000e+00, 0.00000000e+00 
122, 6.25000000e+00, 6.25000000e+00, 0.00000000e+00 
123, 1.25000000e+01, 6.25000000e+00, 0.00000000e+00 
124, 1.87500000e+01, 6.25000000e+00, 0.00000000e+00 
125, 2.50000000e+01, 6.25000000e+00, 0.00000000e+00 
126, 3.12500000e+01, 6.25000000e+00, 0.00000000e+00 
127, 3.75000000e+01, 6.25000000e+00, 0.00000000e+00 
128, 4.37500000e+01, 6.25000000e+00, 0.00000000e+00 
129, 5.00000000e+01, 6.25000000e+00, 0.00000000e+00 
131, 0.00000000e+00, 1.25000000e+01, 0.00000000e+00 
132, 6.25000000e+00, 1.25000000e+01, 0.00000000e+00 
133, 1.25000000e+01, 1.25000000e+01, 0.00000000e+00 
134, 1.87500000e+01, 1.25000000e+01, 0.00000000e+00 
135, 2.50000000e+01, 1.25000000e+01, 0.00000000e+00 
136, 3.12500000e+01, 1.25000000e+01, 0.00000000e+00 
137, 3.75000000e+01, 1.25000000e+01, 0.00000000e+00 
138, 4.37500000e+01, 1.25000000e+01, 0.00000000e+00 
139, 5.00000000e+01, 1.25000000e+01, 0.00000000e+00 
141, 0.00000000e+00, 1.87500000e+01, 0.00000000e+00 
142, 6.25000000e+00, 1.87500000e+01, 0.00000000e+00 
143, 1.25000000e+01, 1.87500000e+01, 0.00000000e+00 
144, 1.87500000e+01, 1.87500000e+01, 0.00000000e+00 
145, 2.50000000e+01, 1.87500000e+01, 0.00000000e+00 
146, 3.12500000e+01, 1.87500000e+01, 0.00000000e+00 
147, 3.75000000e+01, 1.87500000e+01, 0.00000000e+00 
148, 4.37500000e+01, 1.87500000e+01, 0.00000000e+00 
149, 5.00000000e+01, 1.87500000e+01, 0.00000000e+00 
151, 0.00000000e+00, 2.50000000e+01, 0.00000000e+00 
152, 6.25000000e+00, 2.50000000e+01, 0.00000000e+00 
153, 1.25000000e+01, 2.50000000e+01, 0.00000000e+00 
154, 1.87500000e+01, 2.50000000e+01, 0.00000000e+00 
155, 2.50000000e+01, 2.50000000e+01, 0.00000000e+00 
156, 3.12500000e+01, 2.50000000e+01, 0.00000000e+00 
157, 3.75000000e+01, 2.50000000e+01, 0.00000000e+00 
158, 4.37500000e+01, 2.50000000e+01, 0.00000000e+00 
159, 5.00000000e+01, 2.50000000e+01, 0.00000000e+00 
161, 0.00000000e+00, 3.12500000e+01, 0.00000000e+00 
162, 6.25000000e+00, 3.12500000e+01, 0.00000000e+00 
163, 1.25000000e+01, 3.12500000e+01, 0.00000000e+00 
164, 1.87500000e+01, 3.12500000e+01, 0.00000000e+00 
165, 2.50000000e+01, 3.12500000e+01, 0.00000000e+00 
166, 3.12500000e+01, 3.12500000e+01, 0.00000000e+00 
167, 3.75000000e+01, 3.12500000e+01, 0.00000000e+00 
168, 4.37500000e+01, 3.12500000e+01, 0.00000000e+00 
169, 5.00000000e+01, 3.12500000e+01, 0.00000000e+00 
171, 0.00000000e+00, 3.75000000e+01, 0.00000000e+00 
172, 6.25000000e+00, 3.75000000e+01, 0.00000000e+00 
173, 1.25000000e+01, 3.75000000e+01, 0.00000000e+00 
174, 1.87500000e+01, 3.75000000e+01, 0.00000000e+00 
175, 2.50000000e+01, 3.75000000e+01, 0.00000000e+00 
176, 3.12500000e+01, 3.75000000e+01, 0.00000000e+00 
177, 3.75000000e+01, 3.75000000e+01, 0.00000000e+00 
178, 4.37500000e+01, 3.75000000e+01, 0.00000000e+00 
179, 5.00000000e+01, 3.75000000e+01, 0.00000000e+00 
181, 0.00000000e+00, 4.37500000e+01, 0.00000000e+00 
182, 6.25000000e+00, 4.37500000e+01, 0.00000000e+00 
183, 1.25000000e+01, 4.37500000e+01, 0.00000000e+00 
184, 1.87500000e+01, 4.37500000e+01, 0.00000000e+00 
185, 2.50000000e+01, 4.37500000e+01, 0.00000000e+00 
186, 3.12500000e+01, 4.37500000e+01, 0.00000000e+00 
187, 3.75000000e+01, 4.37500000e+01, 0.00000000e+00 
188, 4.37500000e+01, 4.37500000e+01, 0.00000000e+00 
189, 5.00000000e+01, 4.37500000e+01, 0.00000000e+00 
191, 0.00000000e+00, 5.00000000e+01, 0.00000000e+00 
192, 6.25000000e+00, 5.00000000e+01, 0.00000000e+00 
193, 1.25000000e+01, 5.00000000e+01, 0.00000000e+00 
194, 1.87500000e+01, 5.00000000e+01, 0.00000000e+00 
195, 2.50000000e+01, 5.00000000e+01, 0.00000000e+00 
196, 3.12500000e+01, 5.00000000e+01, 0.00000000e+00 
197, 3.75000000e+01, 5.00000000e+01, 0.00000000e+00 
198, 4.37500000e+01, 5.00000000e+01, 0.00000000e+00 
199, 5.00000000e+01, 5.00000000e+01, 0.00000000e+00 
*NODE,NSET=Facez_1 
211, 0.00000000e+00, 0.00000000e+00, 6.25000000e+00 
212, 6.25000000e+00, 0.00000000e+00, 6.25000000e+00 
213, 1.25000000e+01, 0.00000000e+00, 6.25000000e+00 
214, 1.87500000e+01, 0.00000000e+00, 6.25000000e+00 
215, 2.50000000e+01, 0.00000000e+00, 6.25000000e+00 
216, 3.12500000e+01, 0.00000000e+00, 6.25000000e+00 
217, 3.75000000e+01, 0.00000000e+00, 6.25000000e+00 
218, 4.37500000e+01, 0.00000000e+00, 6.25000000e+00 
219, 5.00000000e+01, 0.00000000e+00, 6.25000000e+00 
221, 0.00000000e+00, 6.25000000e+00, 6.25000000e+00 
222, 6.25000000e+00, 6.25000000e+00, 6.25000000e+00 
223, 1.25000000e+01, 6.25000000e+00, 6.25000000e+00 
224, 1.87500000e+01, 6.25000000e+00, 6.25000000e+00 
225, 2.50000000e+01, 6.25000000e+00, 6.25000000e+00 
226, 3.12500000e+01, 6.25000000e+00, 6.25000000e+00 
227, 3.75000000e+01, 6.25000000e+00, 6.25000000e+00 
228, 4.37500000e+01, 6.25000000e+00, 6.25000000e+00 
229, 5.00000000e+01, 6.25000000e+00, 6.25000000e+00 
231, 0.00000000e+00, 1.25000000e+01, 6.25000000e+00 
232, 6.25000000e+00, 1.25000000e+01, 6.25000000e+00 
233, 1.25000000e+01, 1.25000000e+01, 6.25000000e+00 
234, 1.87500000e+01, 1.25000000e+01, 6.25000000e+00 
235, 2.50000000e+01, 1.25000000e+01, 6.25000000e+00 
236, 3.12500000e+01, 1.25000000e+01, 6.25000000e+00 
237, 3.75000000e+01, 1.25000000e+01, 6.25000000e+00 
238, 4.37500000e+01, 1.25000000e+01, 6.25000000e+00 
239, 5.00000000e+01, 1.25000000e+01, 6.25000000e+00 
241, 0.00000000e+00, 1.87500000e+01, 6.25000000e+00 
242, 6.25000000e+00, 1.87500000e+01, 6.25000000e+00 
243, 1.25000000e+01, 1.87500000e+01, 6.25000000e+00 
244, 1.87500000e+01, 1.87500000e+01, 6.25000000e+00 
245, 2.50000000e+01, 1.87500000e+01, 6.25000000e+00 
246, 3.12500000e+01, 1.87500000e+01, 6.25000000e+00 
247, 3.75000000e+01, 1.87500000e+01, 6.25000000e+00 
248, 4.37500000e+01, 1.87500000e+01, 6.25000000e+00 
249, 5.00000000e+01, 1.87500000e+01, 6.25000000e+00 
251, 0.00000000e+00, 2.50000000e+01, 6.25000000e+00 
252, 6.25000000e+00, 2.50000000e+01, 6.25000000e+00 
253, 1.25000000e+01, 2.50000000e+01, 6.25000000e+00 
254, 1.87500000e+01, 2.50000000e+01, 6.25000000e+00 
255, 2.50000000e+01, 2.50000000e+01, 6.25000000e+00 
256, 3.12500000e+01, 2.50000000e+01, 6.25000000e+00 
257, 3.75000000e+01, 2.50000000e+01, 6.25000000e+00 
258, 4.37500000e+01, 2.50000000e+01, 6.25000000e+00 
259, 5.00000000e+01, 2.50000000e+01, 6.25000000e+00 
261, 0.00000000e+00, 3.12500000e+01, 6.25000000e+00 
262, 6.25000000e+00, 3.12500000e+01, 6.25000000e+00 
263, 1.25000000e+01, 3.12500000e+01, 6.25000000e+00 
264, 1.87500000e+01, 3.12500000e+01, 6.25000000e+00 
265, 2.50000000e+01, 3.12500000e+01, 6.25000000e+00 
266, 3.12500000e+01, 3.12500000e+01, 6.25000000e+00 
267, 3.75000000e+01, 3.12500000e+01, 6.25000000e+00 
268, 4.37500000e+01, 3.12500000e+01, 6.25000000e+00 
269, 5.00000000e+01, 3.12500000e+01, 6.25000000e+00 
271, 0.00000000e+00, 3.75000000e+01, 6.25000000e+00 
272, 6.25000000e+00, 3.75000000e+01, 6.25000000e+00 
273, 1.25000000e+01, 3.75000000e+01, 6.25000000e+00 
274, 1.87500000e+01, 3.75000000e+01, 6.25000000e+00 
275, 2.50000000e+01, 3.75000000e+01, 6.25000000e+00 
276, 3.12500000e+01, 3.75000000e+01, 6.25000000e+00 
277, 3.75000000e+01, 3.75000000e+01, 6.25000000e+00 
278, 4.37500000e+01, 3.75000000e+01, 6.25000000e+00 
279, 5.00000000e+01, 3.75000000e+01, 6.25000000e+00 
281, 0.00000000e+00, 4.37500000e+01, 6.25000000e+00 
282, 6.25000000e+00, 4.37500000e+01, 6.25000000e+00 
283, 1.25000000e+01, 4.37500000e+01, 6.25000000e+00 
284, 1.87500000e+01, 4.37500000e+01, 6.25000000e+00 
285, 2.50000000e+01, 4.37500000e+01, 6.25000000e+00 
286, 3.12500000e+01, 4.37500000e+01, 6.25000000e+00 
287, 3.75000000e+01, 4.37500000e+01, 6.25000000e+00 
288, 4.37500000e+01, 4.37500000e+01, 6.25000000e+00 
289, 5.00000000e+01, 4.37500000e+01, 6.25000000e+00 
291, 0.00000000e+00, 5.00000000e+01, 6.25000000e+00 
292, 6.25000000e+00, 5.00000000e+01, 6.25000000e+00 
293, 1.25000000e+01, 5.00000000e+01, 6.25000000e+00 
294, 1.87500000e+01, 5.00000000e+01, 6.25000000e+00 
295, 2.50000000e+01, 5.00000000e+01, 6.25000000e+00 
296, 3.12500000e+01, 5.00000000e+01, 6.25000000e+00 
297, 3.75000000e+01, 5.00000000e+01, 6.25000000e+00 
298, 4.37500000e+01, 5.00000000e+01, 6.25000000e+00 
299, 5.00000000e+01, 5.00000000e+01, 6.25000000e+00 
*NODE,NSET=Facez_2 
311, 0.00000000e+00, 0.00000000e+00, 1.25000000e+01 
312, 6.25000000e+00, 0.00000000e+00, 1.25000000e+01 
313, 1.25000000e+01, 0.00000000e+00, 1.25000000e+01 
314, 1.87500000e+01, 0.00000000e+00, 1.25000000e+01 
315, 2.50000000e+01, 0.00000000e+00, 1.25000000e+01 
316, 3.12500000e+01, 0.00000000e+00, 1.25000000e+01 
317, 3.75000000e+01, 0.00000000e+00, 1.25000000e+01 
318, 4.37500000e+01, 0.00000000e+00, 1.25000000e+01 
319, 5.00000000e+01, 0.00000000e+00, 1.25000000e+01 
321, 0.00000000e+00, 6.25000000e+00, 1.25000000e+01 
322, 6.25000000e+00, 6.25000000e+00, 1.25000000e+01 
323, 1.25000000e+01, 6.25000000e+00, 1.25000000e+01 
324, 1.87500000e+01, 6.25000000e+00, 1.25000000e+01 
325, 2.50000000e+01, 6.25000000e+00, 1.25000000e+01 
326, 3.12500000e+01, 6.25000000e+00, 1.25000000e+01 
327, 3.75000000e+01, 6.25000000e+00, 1.25000000e+01 
328, 4.37500000e+01, 6.25000000e+00, 1.25000000e+01 
329, 5.00000000e+01, 6.25000000e+00, 1.25000000e+01 
331, 0.00000000e+00, 1.25000000e+01, 1.25000000e+01 
332, 6.25000000e+00, 1.25000000e+01, 1.25000000e+01 
333, 1.25000000e+01, 1.25000000e+01, 1.25000000e+01 
334, 1.87500000e+01, 1.25000000e+01, 1.25000000e+01 
335, 2.50000000e+01, 1.25000000e+01, 1.25000000e+01 
336, 3.12500000e+01, 1.25000000e+01, 1.25000000e+01 
337, 3.75000000e+01, 1.25000000e+01, 1.25000000e+01 
338, 4.37500000e+01, 1.25000000e+01, 1.25000000e+01 
339, 5.00000000e+01, 1.25000000e+01, 1.25000000e+01 
341, 0.00000000e+00, 1.87500000e+01, 1.25000000e+01 
342, 6.25000000e+00, 1.87500000e+01, 1.25000000e+01 
343, 1.25000000e+01, 1.87500000e+01, 1.25000000e+01 
344, 1.87500000e+01, 1.87500000e+01, 1.25000000e+01 
345, 2.50000000e+01, 1.87500000e+01, 1.25000000e+01 
346, 3.12500000e+01, 1.87500000e+01, 1.25000000e+01 
347, 3.75000000e+01, 1.87500000e+01, 1.25000000e+01 
348, 4.37500000e+01, 1.87500000e+01, 1.25000000e+01 
349, 5.00000000e+01, 1.87500000e+01, 1.25000000e+01 
351, 0.00000000e+00, 2.50000000e+01, 1.25000000e+01 
352, 6.25000000e+00, 2.50000000e+01, 1.25000000e+01 
353, 1.25000000e+01, 2.50000000e+01, 1.25000000e+01 
354, 1.87500000e+01, 2.50000000e+01, 1.25000000e+01 
355, 2.50000000e+01, 2.50000000e+01, 1.25000000e+01 
356, 3.12500000e+01, 2.50000000e+01, 1.25000000e+01 
357, 3.75000000e+01, 2.50000000e+01, 1.25000000e+01 
358, 4.37500000e+01, 2.50000000e+01, 1.25000000e+01 
359, 5.00000000e+01, 2.50000000e+01, 1.25000000e+01 
361, 0.00000000e+00, 3.12500000e+01, 1.25000000e+01 
362, 6.25000000e+00, 3.12500000e+01, 1.25000000e+01 
363, 1.25000000e+01, 3.12500000e+01, 1.25000000e+01 
364, 1.87500000e+01, 3.12500000e+01, 1.25000000e+01 
365, 2.50000000e+01, 3.12500000e+01, 1.25000000e+01 
366, 3.12500000e+01, 3.12500000e+01, 1.25000000e+01 
367, 3.75000000e+01, 3.12500000e+01, 1.25000000e+01 
368, 4.37500000e+01, 3.12500000e+01, 1.25000000e+01 
369, 5.00000000e+01, 3.12500000e+01, 1.25000000e+01 
371, 0.00000000e+00, 3.75000000e+01, 1.25000000e+01 
372, 6.25000000e+00, 3.75000000e+01, 1.25000000e+01 
373, 1.25000000e+01, 3.75000000e+01, 1.25000000e+01 
374, 1.87500000e+01, 3.75000000e+01, 1.25000000e+01 
375, 2.50000000e+01, 3.75000000e+01, 1.25000000e+01 
376, 3.12500000e+01, 3.75000000e+01, 1.25000000e+01 
377, 3.75000000e+01, 3.75000000e+01, 1.25000000e+01 
378, 4.37500000e+01, 3.75000000e+01, 1.25000000e+01 
379, 5.00000000e+01, 3.75000000e+01, 1.25000000e+01 
381, 0.00000000e+00, 4.37500000e+01, 1.25000000e+01 
382, 6.25000000e+00, 4.37500000e+01, 1.25000000e+01 
383, 1.25000000e+01, 4.37500000e+01, 1.25000000e+01 
384, 1.87500000e+01, 4.37500000e+01, 1.25000000e+01 
385, 2.50000000e+01, 4.37500000e+01, 1.25000000e+01 
386, 3.12500000e+01, 4.37500000e+01, 1.25000000e+01 
387, 3.75000000e+01, 4.37500000e+01, 1.25000000e+01 
388, 4.37500000e+01, 4.37500000e+01, 1.25000000e+01 
389, 5.00000000e+01, 4.37500000e+01, 1.25000000e+01 
391, 0.00000000e+00, 5.00000000e+01, 1.25000000e+01 
392, 6.25000000e+00, 5.00000000e+01, 1.25000000e+01 
393, 1.25000000e+01, 5.00000000e+01, 1.25000000e+01 
394, 1.87500000e+01, 5.00000000e+01, 1.25000000e+01 
395, 2.50000000e+01, 5.00000000e+01, 1.25000000e+01 
396, 3.12500000e+01, 5.00000000e+01, 1.25000000e+01 
397, 3.75000000e+01, 5.00000000e+01, 1.25000000e+01 
398, 4.37500000e+01, 5.00000000e+01, 1.25000000e+01 
399, 5.00000000e+01, 5.00000000e+01, 1.25000000e+01 
*NODE,NSET=Facez_3 
411, 0.00000000e+00, 0.00000000e+00, 1.87500000e+01 
412, 6.25000000e+00, 0.00000000e+00, 1.87500000e+01 
413, 1.25000000e+01, 0.00000000e+00, 1.87500000e+01 
414, 1.87500000e+01, 0.00000000e+00, 1.87500000e+01 
415, 2.50000000e+01, 0.00000000e+00, 1.87500000e+01 
416, 3.12500000e+01, 0.00000000e+00, 1.87500000e+01 
417, 3.75000000e+01, 0.00000000e+00, 1.87500000e+01 
418, 4.37500000e+01, 0.00000000e+00, 1.87500000e+01 
419, 5.00000000e+01, 0.00000000e+00, 1.87500000e+01 
421, 0.00000000e+00, 6.25000000e+00, 1.87500000e+01 
422, 6.25000000e+00, 6.25000000e+00, 1.87500000e+01 
423, 1.25000000e+01, 6.25000000e+00, 1.87500000e+01 
424, 1.87500000e+01, 6.25000000e+00, 1.87500000e+01 
425, 2.50000000e+01, 6.25000000e+00, 1.87500000e+01 
426, 3.12500000e+01, 6.25000000e+00, 1.87500000e+01 
427, 3.75000000e+01, 6.25000000e+00, 1.87500000e+01 
428, 4.37500000e+01, 6.25000000e+00, 1.87500000e+01 
429, 5.00000000e+01, 6.25000000e+00, 1.87500000e+01 
431, 0.00000000e+00, 1.25000000e+01, 1.87500000e+01 
432, 6.25000000e+00, 1.25000000e+01, 1.87500000e+01 
433, 1.25000000e+01, 1.25000000e+01, 1.87500000e+01 
434, 1.87500000e+01, 1.25000000e+01, 1.87500000e+01 
435, 2.50000000e+01, 1.25000000e+01, 1.87500000e+01 
436, 3.12500000e+01, 1.25000000e+01, 1.87500000e+01 
437, 3.75000000e+01, 1.25000000e+01, 1.87500000e+01 
438, 4.37500000e+01, 1.25000000e+01, 1.87500000e+01 
439, 5.00000000e+01, 1.25000000e+01, 1.87500000e+01 
441, 0.00000000e+00, 1.87500000e+01, 1.87500000e+01 
442, 6.25000000e+00, 1.87500000e+01, 1.87500000e+01 
443, 1.25000000e+01, 1.87500000e+01, 1.87500000e+01 
444, 1.87500000e+01, 1.87500000e+01, 1.87500000e+01 
445, 2.50000000e+01, 1.87500000e+01, 1.87500000e+01 
446, 3.12500000e+01, 1.87500000e+01, 1.87500000e+01 
447, 3.75000000e+01, 1.87500000e+01, 1.87500000e+01 
448, 4.37500000e+01, 1.87500000e+01, 1.87500000e+01 
449, 5.00000000e+01, 1.87500000e+01, 1.87500000e+01 
451, 0.00000000e+00, 2.50000000e+01, 1.87500000e+01 
452, 6.25000000e+00, 2.50000000e+01, 1.87500000e+01 
453, 1.25000000e+01, 2.50000000e+01, 1.87500000e+01 
454, 1.87500000e+01, 2.50000000e+01, 1.87500000e+01 
455, 2.50000000e+01, 2.50000000e+01, 1.87500000e+01 
456, 3.12500000e+01, 2.50000000e+01, 1.87500000e+01 
457, 3.75000000e+01, 2.50000000e+01, 1.87500000e+01 
458, 4.37500000e+01, 2.50000000e+01, 1.87500000e+01 
459, 5.00000000e+01, 2.50000000e+01, 1.87500000e+01 
461, 0.00000000e+00, 3.12500000e+01, 1.87500000e+01 
462, 6.25000000e+00, 3.12500000e+01, 1.87500000e+01 
463, 1.25000000e+01, 3.12500000e+01, 1.87500000e+01 
464, 1.87500000e+01, 3.12500000e+01, 1.87500000e+01 
465, 2.50000000e+01, 3.12500000e+01, 1.87500000e+01 
466, 3.12500000e+01, 3.12500000e+01, 1.87500000e+01 
467, 3.75000000e+01, 3.12500000e+01, 1.87500000e+01 
468, 4.37500000e+01, 3.12500000e+01, 1.87500000e+01 
469, 5.00000000e+01, 3.12500000e+01, 1.87500000e+01 
471, 0.00000000e+00, 3.75000000e+01, 1.87500000e+01 
472, 6.25000000e+00, 3.75000000e+01, 1.87500000e+01 
473, 1.25000000e+01, 3.75000000e+01, 1.87500000e+01 
474, 1.87500000e+01, 3.75000000e+01, 1.87500000e+01 
475, 2.50000000e+01, 3.75000000e+01, 1.87500000e+01 
476, 3.12500000e+01, 3.75000000e+01, 1.87500000e+01 
477, 3.75000000e+01, 3.75000000e+01, 1.87500000e+01 
478, 4.37500000e+01, 3.75000000e+01, 1.87500000e+01 
479, 5.00000000e+01, 3.75000000e+01, 1.87500000e+01 
481, 0.00000000e+00, 4.37500000e+01, 1.87500000e+01 
482, 6.25000000e+00, 4.37500000e+01, 1.87500000e+01 
483, 1.25000000e+01, 4.37500000e+01, 1.87500000e+01 
484, 1.87500000e+01, 4.37500000e+01, 1.87500000e+01 
485, 2.50000000e+01, 4.37500000e+01, 1.87500000e+01 
486, 3.12500000e+01, 4.37500000e+01, 1.87500000e+01 
487, 3.75000000e+01, 4.37500000e+01, 1.87500000e+01 
488, 4.37500000e+01, 4.37500000e+01, 1.87500000e+01 
489, 5.00000000e+01, 4.37500000e+01, 1.87500000e+01 
491, 0.00000000e+00, 5.00000000e+01, 1.87500000e+01 
492, 6.25000000e+00, 5.00000000e+01, 1.87500000e+01 
493, 1.25000000e+01, 5.00000000e+01, 1.87500000e+01 
494, 1.87500000e+01, 5.00000000e+01, 1.87500000e+01 
495, 2.50000000e+01, 5.00000000e+01, 1.87500000e+01 
496, 3.12500000e+01, 5.00000000e+01, 1.87500000e+01 
497, 3.75000000e+01, 5.00000000e+01, 1.87500000e+01 
498, 4.37500000e+01, 5.00000000e+01, 1.87500000e+01 
499, 5.00000000e+01, 5.00000000e+01, 1.87500000e+01 
*NODE,NSET=Facez_4 
511, 0.00000000e+00, 0.00000000e+00, 2.50000000e+01 
512, 6.25000000e+00, 0.00000000e+00, 2.50000000e+01 
513, 1.25000000e+01, 0.00000000e+00, 2.50000000e+01 
514, 1.87500000e+01, 0.00000000e+00, 2.50000000e+01 
515, 2.50000000e+01, 0.00000000e+00, 2.50000000e+01 
516, 3.12500000e+01, 0.00000000e+00, 2.50000000e+01 
517, 3.75000000e+01, 0.00000000e+00, 2.50000000e+01 
518, 4.37500000e+01, 0.00000000e+00, 2.50000000e+01 
519, 5.00000000e+01, 0.00000000e+00, 2.50000000e+01 
521, 0.00000000e+00, 6.25000000e+00, 2.50000000e+01 
522, 6.25000000e+00, 6.25000000e+00, 2.50000000e+01 
523, 1.25000000e+01, 6.25000000e+00, 2.50000000e+01 
524, 1.87500000e+01, 6.25000000e+00, 2.50000000e+01 
525, 2.50000000e+01, 6.25000000e+00, 2.50000000e+01 
526, 3.12500000e+01, 6.25000000e+00, 2.50000000e+01 
527, 3.75000000e+01, 6.25000000e+00, 2.50000000e+01 
528, 4.37500000e+01, 6.25000000e+00, 2.50000000e+01 
529, 5.00000000e+01, 6.25000000e+00, 2.50000000e+01 
531, 0.00000000e+00, 1.25000000e+01, 2.50000000e+01 
532, 6.25000000e+00, 1.25000000e+01, 2.50000000e+01 
533, 1.25000000e+01, 1.25000000e+01, 2.50000000e+01 
534, 1.87500000e+01, 1.25000000e+01, 2.50000000e+01 
535, 2.50000000e+01, 1.25000000e+01, 2.50000000e+01 
536, 3.12500000e+01, 1.25000000e+01, 2.50000000e+01 
537, 3.75000000e+01, 1.25000000e+01, 2.50000000e+01 
538, 4.37500000e+01, 1.25000000e+01, 2.50000000e+01 
539, 5.00000000e+01, 1.25000000e+01, 2.50000000e+01 
541, 0.00000000e+00, 1.87500000e+01, 2.50000000e+01 
542, 6.25000000e+00, 1.87500000e+01, 2.50000000e+01 
543, 1.25000000e+01, 1.87500000e+01, 2.50000000e+01 
544, 1.87500000e+01, 1.87500000e+01, 2.50000000e+01 
545, 2.50000000e+01, 1.87500000e+01, 2.50000000e+01 
546, 3.12500000e+01, 1.87500000e+01, 2.50000000e+01 
547, 3.75000000e+01, 1.87500000e+01, 2.50000000e+01 
548, 4.37500000e+01, 1.87500000e+01, 2.50000000e+01 
549, 5.00000000e+01, 1.87500000e+01, 2.50000000e+01 
551, 0.00000000e+00, 2.50000000e+01, 2.50000000e+01 
552, 6.25000000e+00, 2.50000000e+01, 2.50000000e+01 
553, 1.25000000e+01, 2.50000000e+01, 2.50000000e+01 
554, 1.87500000e+01, 2.50000000e+01, 2.50000000e+01 
555, 2.50000000e+01, 2.50000000e+01, 2.50000000e+01 
556, 3.12500000e+01, 2.50000000e+01, 2.50000000e+01 
557, 3.75000000e+01, 2.50000000e+01, 2.50000000e+01 
558, 4.37500000e+01, 2.50000000e+01, 2.50000000e+01 
559, 5.00000000e+01, 2.50000000e+01, 2.50000000e+01 
561, 0.00000000e+00, 3.12500000e+01, 2.50000000e+01 
562, 6.25000000e+00, 3.12500000e+01, 2.50000000e+01 
563, 1.25000000e+01, 3.12500000e+01, 2.50000000e+01 
564, 1.87500000e+01, 3.12500000e+01, 2.50000000e+01 
565, 2.50000000e+01, 3.12500000e+01, 2.50000000e+01 
566, 3.12500000e+01, 3.12500000e+01, 2.50000000e+01 
567, 3.75000000e+01, 3.12500000e+01, 2.50000000e+01 
568, 4.37500000e+01, 3.12500000e+01, 2.50000000e+01 
569, 5.00000000e+01, 3.12500000e+01, 2.50000000e+01 
571, 0.00000000e+00, 3.75000000e+01, 2.50000000e+01 
572, 6.25000000e+00, 3.75000000e+01, 2.50000000e+01 
573, 1.25000000e+01, 3.75000000e+01, 2.50000000e+01 
574, 1.87500000e+01, 3.75000000e+01, 2.50000000e+01 
575, 2.50000000e+01, 3.75000000e+01, 2.50000000e+01 
576, 3.12500000e+01, 3.75000000e+01, 2.50000000e+01 
577, 3.75000000e+01, 3.75000000e+01, 2.50000000e+01 
578, 4.37500000e+01, 3.75000000e+01, 2.50000000e+01 
579, 5.00000000e+01, 3.75000000e+01, 2.50000000e+01 
581, 0.00000000e+00, 4.37500000e+01, 2.50000000e+01 
582, 6.25000000e+00, 4.37500000e+01, 2.50000000e+01 
583, 1.25000000e+01, 4.37500000e+01, 2.50000000e+01 
584, 1.87500000e+01, 4.37500000e+01, 2.50000000e+01 
585, 2.50000000e+01, 4.37500000e+01, 2.50000000e+01 
586, 3.12500000e+01, 4.37500000e+01, 2.50000000e+01 
587, 3.75000000e+01, 4.37500000e+01, 2.50000000e+01 
588, 4.37500000e+01, 4.37500000e+01, 2.50000000e+01 
589, 5.00000000e+01, 4.37500000e+01, 2.50000000e+01 
591, 0.00000000e+00, 5.00000000e+01, 2.50000000e+01 
592, 6.25000000e+00, 5.00000000e+01, 2.50000000e+01 
593, 1.25000000e+01, 5.00000000e+01, 2.50000000e+01 
594, 1.87500000e+01, 5.00000000e+01, 2.50000000e+01 
595, 2.50000000e+01, 5.00000000e+01, 2.50000000e+01 
596, 3.12500000e+01, 5.00000000e+01, 2.50000000e+01 
597, 3.75000000e+01, 5.00000000e+01, 2.50000000e+01 
598, 4.37500000e+01, 5.00000000e+01, 2.50000000e+01 
599, 5.00000000e+01, 5.00000000e+01, 2.50000000e+01 
*NODE,NSET=Facez_5 
611, 0.00000000e+00, 0.00000000e+00, 3.12500000e+01 
612, 6.25000000e+00, 0.00000000e+00, 3.12500000e+01 
613, 1.25000000e+01, 0.00000000e+00, 3.12500000e+01 
614, 1.87500000e+01, 0.00000000e+00, 3.12500000e+01 
615, 2.50000000e+01, 0.00000000e+00, 3.12500000e+01 
616, 3.12500000e+01, 0.00000000e+00, 3.12500000e+01 
617, 3.75000000e+01, 0.00000000e+00, 3.12500000e+01 
618, 4.37500000e+01, 0.00000000e+00, 3.12500000e+01 
619, 5.00000000e+01, 0.00000000e+00, 3.12500000e+01 
621, 0.00000000e+00, 6.25000000e+00, 3.12500000e+01 
622, 6.25000000e+00, 6.25000000e+00, 3.12500000e+01 
623, 1.25000000e+01, 6.25000000e+00, 3.12500000e+01 
624, 1.87500000e+01, 6.25000000e+00, 3.12500000e+01 
625, 2.50000000e+01, 6.25000000e+00, 3.12500000e+01 
626, 3.12500000e+01, 6.25000000e+00, 3.12500000e+01 
627, 3.75000000e+01, 6.25000000e+00, 3.12500000e+01 
628, 4.37500000e+01, 6.25000000e+00, 3.12500000e+01 
629, 5.00000000e+01, 6.25000000e+00, 3.12500000e+01 
631, 0.00000000e+00, 1.25000000e+01, 3.12500000e+01 
632, 6.25000000e+00, 1.25000000e+01, 3.12500000e+01 
633, 1.25000000e+01, 1.25000000e+01, 3.12500000e+01 
634, 1.87500000e+01, 1.25000000e+01, 3.12500000e+01 
635, 2.50000000e+01, 1.25000000e+01, 3.12500000e+01 
636, 3.12500000e+01, 1.25000000e+01, 3.12500000e+01 
637, 3.75000000e+01, 1.25000000e+01, 3.12500000e+01 
638, 4.37500000e+01, 1.25000000e+01, 3.12500000e+01 
639, 5.00000000e+01, 1.25000000e+01, 3.12500000e+01 
641, 0.00000000e+00, 1.87500000e+01, 3.12500000e+01 
642, 6.25000000e+00, 1.87500000e+01, 3.12500000e+01 
643, 1.25000000e+01, 1.87500000e+01, 3.12500000e+01 
644, 1.87500000e+01, 1.87500000e+01, 3.12500000e+01 
645, 2.50000000e+01, 1.87500000e+01, 3.12500000e+01 
646, 3.12500000e+01, 1.87500000e+01, 3.12500000e+01 
647, 3.75000000e+01, 1.87500000e+01, 3.12500000e+01 
648, 4.37500000e+01, 1.87500000e+01, 3.12500000e+01 
649, 5.00000000e+01, 1.87500000e+01, 3.12500000e+01 
651, 0.00000000e+00, 2.50000000e+01, 3.12500000e+01 
652, 6.25000000e+00, 2.50000000e+01, 3.12500000e+01 
653, 1.25000000e+01, 2.50000000e+01, 3.12500000e+01 
654, 1.87500000e+01, 2.50000000e+01, 3.12500000e+01 
655, 2.50000000e+01, 2.50000000e+01, 3.12500000e+01 
656, 3.12500000e+01, 2.50000000e+01, 3.12500000e+01 
657, 3.75000000e+01, 2.50000000e+01, 3.12500000e+01 
658, 4.37500000e+01, 2.50000000e+01, 3.12500000e+01 
659, 5.00000000e+01, 2.50000000e+01, 3.12500000e+01 
661, 0.00000000e+00, 3.12500000e+01, 3.12500000e+01 
662, 6.25000000e+00, 3.12500000e+01, 3.12500000e+01 
663, 1.25000000e+01, 3.12500000e+01, 3.12500000e+01 
664, 1.87500000e+01, 3.12500000e+01, 3.12500000e+01 
665, 2.50000000e+01, 3.12500000e+01, 3.12500000e+01 
666, 3.12500000e+01, 3.12500000e+01, 3.12500000e+01 
667, 3.75000000e+01, 3.12500000e+01, 3.12500000e+01 
668, 4.37500000e+01, 3.12500000e+01, 3.12500000e+01 
669, 5.00000000e+01, 3.12500000e+01, 3.12500000e+01 
671, 0.00000000e+00, 3.75000000e+01, 3.12500000e+01 
672, 6.25000000e+00, 3.75000000e+01, 3.12500000e+01 
673, 1.25000000e+01, 3.75000000e+01, 3.12500000e+01 
674, 1.87500000e+01, 3.75000000e+01, 3.12500000e+01 
675, 2.50000000e+01, 3.75000000e+01, 3.12500000e+01 
676, 3.12500000e+01, 3.75000000e+01, 3.12500000e+01 
677, 3.75000000e+01, 3.75000000e+01, 3.12500000e+01 
678, 4.37500000e+01, 3.75000000e+01, 3.12500000e+01 
679, 5.00000000e+01, 3.75000000e+01, 3.12500000e+01 
681, 0.00000000e+00, 4.37500000e+01, 3.12500000e+01 
682, 6.25000000e+00, 4.37500000e+01, 3.12500000e+01 
683, 1.25000000e+01, 4.37500000e+01, 3.12500000e+01 
684, 1.87500000e+01, 4.37500000e+01, 3.12500000e+01 
685, 2.50000000e+01, 4.37500000e+01, 3.12500000e+01 
686, 3.12500000e+01, 4.37500000e+01, 3.12500000e+01 
687, 3.75000000e+01, 4.37500000e+01, 3.12500000e+01 
688, 4.37500000e+01, 4.37500000e+01, 3.12500000e+01 
689, 5.00000000e+01, 4.37500000e+01, 3.12500000e+01 
691, 0.00000000e+00, 5.00000000e+01, 3.12500000e+01 
692, 6.25000000e+00, 5.00000000e+01, 3.12500000e+01 
693, 1.25000000e+01, 5.00000000e+01, 3.12500000e+01 
694, 1.87500000e+01, 5.00000000e+01, 3.12500000e+01 
695, 2.50000000e+01, 5.00000000e+01, 3.12500000e+01 
696, 3.12500000e+01, 5.00000000e+01, 3.12500000e+01 
697, 3.75000000e+01, 5.00000000e+01, 3.12500000e+01 
698, 4.37500000e+01, 5.00000000e+01, 3.12500000e+01 
699, 5.00000000e+01, 5.00000000e+01, 3.12500000e+01 
*NODE,NSET=Facez_6 
711, 0.00000000e+00, 0.00000000e+00, 3.75000000e+01 
712, 6.25000000e+00, 0.00000000e+00, 3.75000000e+01 
713, 1.25000000e+01, 0.00000000e+00, 3.75000000e+01 
714, 1.87500000e+01, 0.00000000e+00, 3.75000000e+01 
715, 2.50000000e+01, 0.00000000e+00, 3.75000000e+01 
716, 3.12500000e+01, 0.00000000e+00, 3.75000000e+01 
717, 3.75000000e+01, 0.00000000e+00, 3.75000000e+01 
718, 4.37500000e+01, 0.00000000e+00, 3.75000000e+01 
719, 5.00000000e+01, 0.00000000e+00, 3.75000000e+01 
721, 0.00000000e+00, 6.25000000e+00, 3.75000000e+01 
722, 6.25000000e+00, 6.25000000e+00, 3.75000000e+01 
723, 1.25000000e+01, 6.25000000e+00, 3.75000000e+01 
724, 1.87500000e+01, 6.25000000e+00, 3.75000000e+01 
725, 2.50000000e+01, 6.25000000e+00, 3.75000000e+01 
726, 3.12500000e+01, 6.25000000e+00, 3.75000000e+01 
727, 3.75000000e+01, 6.25000000e+00, 3.75000000e+01 
728, 4.37500000e+01, 6.25000000e+00, 3.75000000e+01 
729, 5.00000000e+01, 6.25000000e+00, 3.75000000e+01 
731, 0.00000000e+00, 1.25000000e+01, 3.75000000e+01 
732, 6.25000000e+00, 1.25000000e+01, 3.75000000e+01 
733, 1.25000000e+01, 1.25000000e+01, 3.75000000e+01 
734, 1.87500000e+01, 1.25000000e+01, 3.75000000e+01 
735, 2.50000000e+01, 1.25000000e+01, 3.75000000e+01 
736, 3.12500000e+01, 1.25000000e+01, 3.75000000e+01 
737, 3.75000000e+01, 1.25000000e+01, 3.75000000e+01 
738, 4.37500000e+01, 1.25000000e+01, 3.75000000e+01 
739, 5.00000000e+01, 1.25000000e+01, 3.75000000e+01 
741, 0.00000000e+00, 1.87500000e+01, 3.75000000e+01 
742, 6.25000000e+00, 1.87500000e+01, 3.75000000e+01 
743, 1.25000000e+01, 1.87500000e+01, 3.75000000e+01 
744, 1.87500000e+01, 1.87500000e+01, 3.75000000e+01 
745, 2.50000000e+01, 1.87500000e+01, 3.75000000e+01 
746, 3.12500000e+01, 1.87500000e+01, 3.75000000e+01 
747, 3.75000000e+01, 1.87500000e+01, 3.75000000e+01 
748, 4.37500000e+01, 1.87500000e+01, 3.75000000e+01 
749, 5.00000000e+01, 1.87500000e+01, 3.75000000e+01 
751, 0.00000000e+00, 2.50000000e+01, 3.75000000e+01 
752, 6.25000000e+00, 2.50000000e+01, 3.75000000e+01 
753, 1.25000000e+01, 2.50000000e+01, 3.75000000e+01 
754, 1.87500000e+01, 2.50000000e+01, 3.75000000e+01 
755, 2.50000000e+01, 2.50000000e+01, 3.75000000e+01 
756, 3.12500000e+01, 2.50000000e+01, 3.75000000e+01 
757, 3.75000000e+01, 2.50000000e+01, 3.75000000e+01 
758, 4.37500000e+01, 2.50000000e+01, 3.75000000e+01 
759, 5.00000000e+01, 2.50000000e+01, 3.75000000e+01 
761, 0.00000000e+00, 3.12500000e+01, 3.75000000e+01 
762, 6.25000000e+00, 3.12500000e+01, 3.75000000e+01 
763, 1.25000000e+01, 3.12500000e+01, 3.75000000e+01 
764, 1.87500000e+01, 3.12500000e+01, 3.75000000e+01 
765, 2.50000000e+01, 3.12500000e+01, 3.75000000e+01 
766, 3.12500000e+01, 3.12500000e+01, 3.75000000e+01 
767, 3.75000000e+01, 3.12500000e+01, 3.75000000e+01 
768, 4.37500000e+01, 3.12500000e+01, 3.75000000e+01 
769, 5.00000000e+01, 3.12500000e+01, 3.75000000e+01 
771, 0.00000000e+00, 3.75000000e+01, 3.75000000e+01 
772, 6.25000000e+00, 3.75000000e+01, 3.75000000e+01 
773, 1.25000000e+01, 3.75000000e+01, 3.75000000e+01 
774, 1.87500000e+01, 3.75000000e+01, 3.75000000e+01 
775, 2.50000000e+01, 3.75000000e+01, 3.75000000e+01 
776, 3.12500000e+01, 3.75000000e+01, 3.75000000e+01 
777, 3.75000000e+01, 3.75000000e+01, 3.75000000e+01 
778, 4.37500000e+01, 3.75000000e+01, 3.75000000e+01 
779, 5.00000000e+01, 3.75000000e+01, 3.75000000e+01 
781, 0.00000000e+00, 4.37500000e+01, 3.75000000e+01 
782, 6.25000000e+00, 4.37500000e+01, 3.75000000e+01 
783, 1.25000000e+01, 4.37500000e+01, 3.75000000e+01 
784, 1.87500000e+01, 4.37500000e+01, 3.75000000e+01 
785, 2.50000000e+01, 4.37500000e+01, 3.75000000e+01 
786, 3.12500000e+01, 4.37500000e+01, 3.75000000e+01 
787, 3.75000000e+01, 4.37500000e+01, 3.75000000e+01 
788, 4.37500000e+01, 4.37500000e+01, 3.75000000e+01 
789, 5.00000000e+01, 4.37500000e+01, 3.75000000e+01 
791, 0.00000000e+00, 5.00000000e+01, 3.75000000e+01 
792, 6.25000000e+00, 5.00000000e+01, 3.75000000e+01 
793, 1.25000000e+01, 5.00000000e+01, 3.75000000e+01 
794, 1.87500000e+01, 5.00000000e+01, 3.75000000e+01 
795, 2.50000000e+01, 5.00000000e+01, 3.75000000e+01 
796, 3.12500000e+01, 5.00000000e+01, 3.75000000e+01 
797, 3.75000000e+01, 5.00000000e+01, 3.75000000e+01 
798, 4.37500000e+01, 5.00000000e+01, 3.75000000e+01 
799, 5.00000000e+01, 5.00000000e+01, 3.75000000e+01 
*NODE,NSET=Facez_7 
811, 0.00000000e+00, 0.00000000e+00, 4.37500000e+01 
812, 6.25000000e+00, 0.00000000e+00, 4.37500000e+01 
813, 1.25000000e+01, 0.00000000e+00, 4.37500000e+01 
814, 1.87500000e+01, 0.00000000e+00, 4.37500000e+01 
815, 2.50000000e+01, 0.00000000e+00, 4.37500000e+01 
816, 3.12500000e+01, 0.00000000e+00, 4.37500000e+01 
817, 3.75000000e+01, 0.00000000e+00, 4.37500000e+01 
818, 4.37500000e+01, 0.00000000e+00, 4.37500000e+01 
819, 5.00000000e+01, 0.00000000e+00, 4.37500000e+01 
821, 0.00000000e+00, 6.25000000e+00, 4.37500000e+01 
822, 6.25000000e+00, 6.25000000e+00, 4.37500000e+01 
823, 1.25000000e+01, 6.25000000e+00, 4.37500000e+01 
824, 1.87500000e+01, 6.25000000e+00, 4.37500000e+01 
825, 2.50000000e+01, 6.25000000e+00, 4.37500000e+01 
826, 3.12500000e+01, 6.25000000e+00, 4.37500000e+01 
827, 3.75000000e+01, 6.25000000e+00, 4.37500000e+01 
828, 4.37500000e+01, 6.25000000e+00, 4.37500000e+01 
829, 5.00000000e+01, 6.25000000e+00, 4.37500000e+01 
831, 0.00000000e+00, 1.25000000e+01, 4.37500000e+01 
832, 6.25000000e+00, 1.25000000e+01, 4.37500000e+01 
833, 1.25000000e+01, 1.25000000e+01, 4.37500000e+01 
834, 1.87500000e+01, 1.25000000e+01, 4.37500000e+01 
835, 2.50000000e+01, 1.25000000e+01, 4.37500000e+01 
836, 3.12500000e+01, 1.25000000e+01, 4.37500000e+01 
837, 3.75000000e+01, 1.25000000e+01, 4.37500000e+01 
838, 4.37500000e+01, 1.25000000e+01, 4.37500000e+01 
839, 5.00000000e+01, 1.25000000e+01, 4.37500000e+01 
841, 0.00000000e+00, 1.87500000e+01, 4.37500000e+01 
842, 6.25000000e+00, 1.87500000e+01, 4.37500000e+01 
843, 1.25000000e+01, 1.87500000e+01, 4.37500000e+01 
844, 1.87500000e+01, 1.87500000e+01, 4.37500000e+01 
845, 2.50000000e+01, 1.87500000e+01, 4.37500000e+01 
846, 3.12500000e+01, 1.87500000e+01, 4.37500000e+01 
847, 3.75000000e+01, 1.87500000e+01, 4.37500000e+01 
848, 4.37500000e+01, 1.87500000e+01, 4.37500000e+01 
849, 5.00000000e+01, 1.87500000e+01, 4.37500000e+01 
851, 0.00000000e+00, 2.50000000e+01, 4.37500000e+01 
852, 6.25000000e+00, 2.50000000e+01, 4.37500000e+01 
853, 1.25000000e+01, 2.50000000e+01, 4.37500000e+01 
854, 1.87500000e+01, 2.50000000e+01, 4.37500000e+01 
855, 2.50000000e+01, 2.50000000e+01, 4.37500000e+01 
856, 3.12500000e+01, 2.50000000e+01, 4.37500000e+01 
857, 3.75000000e+01, 2.50000000e+01, 4.37500000e+01 
858, 4.37500000e+01, 2.50000000e+01, 4.37500000e+01 
859, 5.00000000e+01, 2.50000000e+01, 4.37500000e+01 
861, 0.00000000e+00, 3.12500000e+01, 4.37500000e+01 
862, 6.25000000e+00, 3.12500000e+01, 4.37500000e+01 
863, 1.25000000e+01, 3.12500000e+01, 4.37500000e+01 
864, 1.87500000e+01, 3.12500000e+01, 4.37500000e+01 
865, 2.50000000e+01, 3.12500000e+01, 4.37500000e+01 
866, 3.12500000e+01, 3.12500000e+01, 4.37500000e+01 
867, 3.75000000e+01, 3.12500000e+01, 4.37500000e+01 
868, 4.37500000e+01, 3.12500000e+01, 4.37500000e+01 
869, 5.00000000e+01, 3.12500000e+01, 4.37500000e+01 
871, 0.00000000e+00, 3.75000000e+01, 4.37500000e+01 
872, 6.25000000e+00, 3.75000000e+01, 4.37500000e+01 
873, 1.25000000e+01, 3.75000000e+01, 4.37500000e+01 
874, 1.87500000e+01, 3.75000000e+01, 4.37500000e+01 
875, 2.50000000e+01, 3.75000000e+01, 4.37500000e+01 
876, 3.12500000e+01, 3.75000000e+01, 4.37500000e+01 
877, 3.75000000e+01, 3.75000000e+01, 4.37500000e+01 
878, 4.37500000e+01, 3.75000000e+01, 4.37500000e+01 
879, 5.00000000e+01, 3.75000000e+01, 4.37500000e+01 
881, 0.00000000e+00, 4.37500000e+01, 4.37500000e+01 
882, 6.25000000e+00, 4.37500000e+01, 4.37500000e+01 
883, 1.25000000e+01, 4.37500000e+01, 4.37500000e+01 
884, 1.87500000e+01, 4.37500000e+01, 4.37500000e+01 
885, 2.50000000e+01, 4.37500000e+01, 4.37500000e+01 
886, 3.12500000e+01, 4.37500000e+01, 4.37500000e+01 
887, 3.75000000e+01, 4.37500000e+01, 4.37500000e+01 
888, 4.37500000e+01, 4.37500000e+01, 4.37500000e+01 
889, 5.00000000e+01, 4.37500000e+01, 4.37500000e+01 
891, 0.00000000e+00, 5.00000000e+01, 4.37500000e+01 
892, 6.25000000e+00, 5.00000000e+01, 4.37500000e+01 
893, 1.25000000e+01, 5.00000000e+01, 4.37500000e+01 
894, 1.87500000e+01, 5.00000000e+01, 4.37500000e+01 
895, 2.50000000e+01, 5.00000000e+01, 4.37500000e+01 
896, 3.12500000e+01, 5.00000000e+01, 4.37500000e+01 
897, 3.75000000e+01, 5.00000000e+01, 4.37500000e+01 
898, 4.37500000e+01, 5.00000000e+01, 4.37500000e+01 
899, 5.00000000e+01, 5.00000000e+01, 4.37500000e+01 
*NODE,NSET=Facez_8 
911, 0.00000000e+00, 0.00000000e+00, 5.00000000e+01 
912, 6.25000000e+00, 0.00000000e+00, 5.00000000e+01 
913, 1.25000000e+01, 0.00000000e+00, 5.00000000e+01 
914, 1.87500000e+01, 0.00000000e+00, 5.00000000e+01 
915, 2.50000000e+01, 0.00000000e+00, 5.00000000e+01 
916, 3.12500000e+01, 0.00000000e+00, 5.00000000e+01 
917, 3.75000000e+01, 0.00000000e+00, 5.00000000e+01 
918, 4.37500000e+01, 0.00000000e+00, 5.00000000e+01 
919, 5.00000000e+01, 0.00000000e+00, 5.00000000e+01 
921, 0.00000000e+00, 6.25000000e+00, 5.00000000e+01 
922, 6.25000000e+00, 6.25000000e+00, 5.00000000e+01 
923, 1.25000000e+01, 6.25000000e+00, 5.00000000e+01 
924, 1.87500000e+01, 6.25000000e+00, 5.00000000e+01 
925, 2.50000000e+01, 6.25000000e+00, 5.00000000e+01 
926, 3.12500000e+01, 6.25000000e+00, 5.00000000e+01 
927, 3.75000000e+01, 6.25000000e+00, 5.00000000e+01 
928, 4.37500000e+01, 6.25000000e+00, 5.00000000e+01 
929, 5.00000000e+01, 6.25000000e+00, 5.00000000e+01 
931, 0.00000000e+00, 1.25000000e+01, 5.00000000e+01 
932, 6.25000000e+00, 1.25000000e+01, 5.00000000e+01 
933, 1.25000000e+01, 1.25000000e+01, 5.00000000e+01 
934, 1.87500000e+01, 1.25000000e+01, 5.00000000e+01 
935, 2.50000000e+01, 1.25000000e+01, 5.00000000e+01 
936, 3.12500000e+01, 1.25000000e+01, 5.00000000e+01 
937, 3.75000000e+01, 1.25000000e+01, 5.00000000e+01 
938, 4.37500000e+01, 1.25000000e+01, 5.00000000e+01 
939, 5.00000000e+01, 1.25000000e+01, 5.00000000e+01 
941, 0.00000000e+00, 1.87500000e+01, 5.00000000e+01 
942, 6.25000000e+00, 1.87500000e+01, 5.00000000e+01 
943, 1.25000000e+01, 1.87500000e+01, 5.00000000e+01 
944, 1.87500000e+01, 1.87500000e+01, 5.00000000e+01 
945, 2.50000000e+01, 1.87500000e+01, 5.00000000e+01 
946, 3.12500000e+01, 1.87500000e+01, 5.00000000e+01 
947, 3.75000000e+01, 1.87500000e+01, 5.00000000e+01 
948, 4.37500000e+01, 1.87500000e+01, 5.00000000e+01 
949, 5.00000000e+01, 1.87500000e+01, 5.00000000e+01 
951, 0.00000000e+00, 2.50000000e+01, 5.00000000e+01 
952, 6.25000000e+00, 2.50000000e+01, 5.00000000e+01 
953, 1.25000000e+01, 2.50000000e+01, 5.00000000e+01 
954, 1.87500000e+01, 2.50000000e+01, 5.00000000e+01 
955, 2.50000000e+01, 2.50000000e+01, 5.00000000e+01 
956, 3.12500000e+01, 2.50000000e+01, 5.00000000e+01 
957, 3.75000000e+01, 2.50000000e+01, 5.00000000e+01 
958, 4.37500000e+01, 2.50000000e+01, 5.00000000e+01 
959, 5.00000000e+01, 2.50000000e+01, 5.00000000e+01 
961, 0.00000000e+00, 3.12500000e+01, 5.00000000e+01 
962, 6.25000000e+00, 3.12500000e+01, 5.00000000e+01 
963, 1.25000000e+01, 3.12500000e+01, 5.00000000e+01 
964, 1.87500000e+01, 3.12500000e+01, 5.00000000e+01 
965, 2.50000000e+01, 3.12500000e+01, 5.00000000e+01 
966, 3.12500000e+01, 3.12500000e+01, 5.00000000e+01 
967, 3.75000000e+01, 3.12500000e+01, 5.00000000e+01 
968, 4.37500000e+01, 3.12500000e+01, 5.00000000e+01 
969, 5.00000000e+01, 3.12500000e+01, 5.00000000e+01 
971, 0.00000000e+00, 3.75000000e+01, 5.00000000e+01 
972, 6.25000000e+00, 3.75000000e+01, 5.00000000e+01 
973, 1.25000000e+01, 3.75000000e+01, 5.00000000e+01 
974, 1.87500000e+01, 3.75000000e+01, 5.00000000e+01 
975, 2.50000000e+01, 3.75000000e+01, 5.00000000e+01 
976, 3.12500000e+01, 3.75000000e+01, 5.00000000e+01 
977, 3.75000000e+01, 3.75000000e+01, 5.00000000e+01 
978, 4.37500000e+01, 3.75000000e+01, 5.00000000e+01 
979, 5.00000000e+01, 3.75000000e+01, 5.00000000e+01 
981, 0.00000000e+00, 4.37500000e+01, 5.00000000e+01 
982, 6.25000000e+00, 4.37500000e+01, 5.00000000e+01 
983, 1.25000000e+01, 4.37500000e+01, 5.00000000e+01 
984, 1.87500000e+01, 4.37500000e+01, 5.00000000e+01 
985, 2.50000000e+01, 4.37500000e+01, 5.00000000e+01 
986, 3.12500000e+01, 4.37500000e+01, 5.00000000e+01 
987, 3.75000000e+01, 4.37500000e+01, 5.00000000e+01 
988, 4.37500000e+01, 4.37500000e+01, 5.00000000e+01 
989, 5.00000000e+01, 4.37500000e+01, 5.00000000e+01 
991, 0.00000000e+00, 5.00000000e+01, 5.00000000e+01 
992, 6.25000000e+00, 5.00000000e+01, 5.00000000e+01 
993, 1.25000000e+01, 5.00000000e+01, 5.00000000e+01 
994, 1.87500000e+01, 5.00000000e+01, 5.00000000e+01 
995, 2.50000000e+01, 5.00000000e+01, 5.00000000e+01 
996, 3.12500000e+01, 5.00000000e+01, 5.00000000e+01 
997, 3.75000000e+01, 5.00000000e+01, 5.00000000e+01 
998, 4.37500000e+01, 5.00000000e+01, 5.00000000e+01 
999, 5.00000000e+01, 5.00000000e+01, 5.00000000e+01 
*NSET,NSET=Facex_0 
111
121
131
141
151
161
171
181
191
211
221
231
241
251
261
271
281
291
311
321
331
341
351
361
371
381
391
411
421
431
441
451
461
471
481
491
511
521
531
541
551
561
571
581
591
611
621
631
641
651
661
671
681
691
711
721
731
741
751
761
771
781
791
811
821
831
841
851
861
871
881
891
911
921
931
941
951
961
971
981
991
*NSET,NSET=Facex_1 
112
122
132
142
152
162
172
182
192
212
222
232
242
252
262
272
282
292
312
322
332
342
352
362
372
382
392
412
422
432
442
452
462
472
482
492
512
522
532
542
552
562
572
582
592
612
622
632
642
652
662
672
682
692
712
722
732
742
752
762
772
782
792
812
822
832
842
852
862
872
882
892
912
922
932
942
952
962
972
982
992
*NSET,NSET=Facex_2 
113
123
133
143
153
163
173
183
193
213
223
233
243
253
263
273
283
293
313
323
333
343
353
363
373
383
393
413
423
433
443
453
463
473
483
493
513
523
533
543
553
563
573
583
593
613
623
633
643
653
663
673
683
693
713
723
733
743
753
763
773
783
793
813
823
833
843
853
863
873
883
893
913
923
933
943
953
963
973
983
993
*NSET,NSET=Facex_3 
114
124
134
144
154
164
174
184
194
214
224
234
244
254
264
274
284
294
314
324
334
344
354
364
374
384
394
414
424
434
444
454
464
474
484
494
514
524
534
544
554
564
574
584
594
614
624
634
644
654
664
674
684
694
714
724
734
744
754
764
774
784
794
814
824
834
844
854
864
874
884
894
914
924
934
944
954
964
974
984
994
*NSET,NSET=Facex_4 
115
125
135
145
155
165
175
185
195
215
225
235
245
255
265
275
285
295
315
325
335
345
355
365
375
385
395
415
425
435
445
455
465
475
485
495
515
525
535
545
555
565
575
585
595
615
625
635
645
655
665
675
685
695
715
725
735
745
755
765
775
785
795
815
825
835
845
855
865
875
885
895
915
925
935
945
955
965
975
985
995
*NSET,NSET=Facex_5 
116
126
136
146
156
166
176
186
196
216
226
236
246
256
266
276
286
296
316
326
336
346
356
366
376
386
396
416
426
436
446
456
466
476
486
496
516
526
536
546
556
566
576
586
596
616
626
636
646
656
666
676
686
696
716
726
736
746
756
766
776
786
796
816
826
836
846
856
866
876
886
896
916
926
936
946
956
966
976
986
996
*NSET,NSET=Facex_6 
117
127
137
147
157
167
177
187
197
217
227
237
247
257
267
277
287
297
317
327
337
347
357
367
377
387
397
417
427
437
447
457
467
477
487
497
517
527
537
547
557
567
577
587
597
617
627
637
647
657
667
677
687
697
717
727
737
747
757
767
777
787
797
817
827
837
847
857
867
877
887
897
917
927
937
947
957
967
977
987
997
*NSET,NSET=Facex_7 
118
128
138
148
158
168
178
188
198
218
228
238
248
258
268
278
288
298
318
328
338
348
358
368
378
388
398
418
428
438
448
458
468
478
488
498
518
528
538
548
558
568
578
588
598
618
628
638
648
658
668
678
688
698
718
728
738
748
758
768
778
788
798
818
828
838
848
858
868
878
888
898
918
928
938
948
958
968
978
988
998
*NSET,NSET=Facex_8 
119
129
139
149
159
169
179
189
199
219
229
239
249
259
269
279
289
299
319
329
339
349
359
369
379
389
399
419
429
439
449
459
469
479
489
499
519
529
539
549
559
569
579
589
599
619
629
639
649
659
669
679
689
699
719
729
739
749
759
769
779
789
799
819
829
839
849
859
869
879
889
899
919
929
939
949
959
969
979
989
999
*NSET,NSET=Facey_0 
111
112
113
114
115
116
117
118
119
211
212
213
214
215
216
217
218
219
311
312
313
314
315
316
317
318
319
411
412
413
414
415
416
417
418
419
511
512
513
514
515
516
517
518
519
611
612
613
614
615
616
617
618
619
711
712
713
714
715
716
717
718
719
811
812
813
814
815
816
817
818
819
911
912
913
914
915
916
917
918
919
*NSET,NSET=Facey_1 
121
122
123
124
125
126
127
128
129
221
222
223
224
225
226
227
228
229
321
322
323
324
325
326
327
328
329
421
422
423
424
425
426
427
428
429
521
522
523
524
525
526
527
528
529
621
622
623
624
625
626
627
628
629
721
722
723
724
725
726
727
728
729
821
822
823
824
825
826
827
828
829
921
922
923
924
925
926
927
928
929
*NSET,NSET=Facey_2 
131
132
133
134
135
136
137
138
139
231
232
233
234
235
236
237
238
239
331
332
333
334
335
336
337
338
339
431
432
433
434
435
436
437
438
439
531
532
533
534
535
536
537
538
539
631
632
633
634
635
636
637
638
639
731
732
733
734
735
736
737
738
739
831
832
833
834
835
836
837
838
839
931
932
933
934
935
936
937
938
939
*NSET,NSET=Facey_3 
141
142
143
144
145
146
147
148
149
241
242
243
244
245
246
247
248
249
341
342
343
344
345
346
347
348
349
441
442
443
444
445
446
447
448
449
541
542
543
544
545
546
547
548
549
641
642
643
644
645
646
647
648
649
741
742
743
744
745
746
747
748
749
841
842
843
844
845
846
847
848
849
941
942
943
944
945
946
947
948
949
*NSET,NSET=Facey_4 
151
152
153
154
155
156
157
158
159
251
252
253
254
255
256
257
258
259
351
352
353
354
355
356
357
358
359
451
452
453
454
455
456
457
458
459
551
552
553
554
555
556
557
558
559
651
652
653
654
655
656
657
658
659
751
752
753
754
755
756
757
758
759
851
852
853
854
855
856
857
858
859
951
952
953
954
955
956
957
958
959
*NSET,NSET=Facey_5 
161
162
163
164
165
166
167
168
169
261
262
263
264
265
266
267
268
269
361
362
363
364
365
366
367
368
369
461
462
463
464
465
466
467
468
469
561
562
563
564
565
566
567
568
569
661
662
663
664
665
666
667
668
669
761
762
763
764
765
766
767
768
769
861
862
863
864
865
866
867
868
869
961
962
963
964
965
966
967
968
969
*NSET,NSET=Facey_6 
171
172
173
174
175
176
177
178
179
271
272
273
274
275
276
277
278
279
371
372
373
374
375
376
377
378
379
471
472
473
474
475
476
477
478
479
571
572
573
574
575
576
577
578
579
671
672
673
674
675
676
677
678
679
771
772
773
774
775
776
777
778
779
871
872
873
874
875
876
877
878
879
971
972
973
974
975
976
977
978
979
*NSET,NSET=Facey_7 
181
182
183
184
185
186
187
188
189
281
282
283
284
285
286
287
288
289
381
382
383
384
385
386
387
388
389
481
482
483
484
485
486
487
488
489
581
582
583
584
585
586
587
588
589
681
682
683
684
685
686
687
688
689
781
782
783
784
785
786
787
788
789
881
882
883
884
885
886
887
888
889
981
982
983
984
985
986
987
988
989
*NSET,NSET=Facey_8 
191
192
193
194
195
196
197
198
199
291
292
293
294
295
296
297
298
299
391
392
393
394
395
396
397
398
399
491
492
493
494
495
496
497
498
499
591
592
593
594
595
596
597
598
599
691
692
693
694
695
696
697
698
699
791
792
793
794
795
796
797
798
799
891
892
893
894
895
896
897
898
899
991
992
993
994
995
996
997
998
999
*NSET,NSET=Load1
922
923
924
932
933
934
942
943
944
*NSET,NSET=Load2
912
913
914
925
935
945
954
953
952
941
931
921
*NSET,NSET=Load4
911
915
955
951
*element,TYPE=C3D8,ELSET=All
  1, 111, 112, 122, 121, 211, 212, 222, 221
  2, 112, 113, 123, 122, 212, 213, 223, 222
  3, 113, 114, 124, 123, 213, 214, 224, 223
  4, 114, 115, 125, 124, 214, 215, 225, 224
  5, 115, 116, 126, 125, 215, 216, 226, 225
  6, 116, 117, 127, 126, 216, 217, 227, 226
  7, 117, 118, 128, 127, 217, 218, 228, 227
  8, 118, 119, 129, 128, 218, 219, 229, 228
  9, 121, 122, 132, 131, 221, 222, 232, 231
 10, 122, 123, 133, 132, 222, 223, 233, 232
 11, 123, 124, 134, 133, 223, 224, 234, 233
 12, 124, 125, 135, 134, 224, 225, 235, 234
 13, 125, 126, 136, 135, 225, 226, 236, 235
 14, 126, 127, 137, 136, 226, 227, 237, 236
 15, 127, 128, 138, 137, 227, 228, 238, 237
 16, 128, 129, 139, 138, 228, 229, 239, 238
 17, 131, 132, 142, 141, 231, 232, 242, 241
 18, 132, 133, 143, 142, 232, 233, 243, 242
 19, 133, 134, 144, 143, 233, 234, 244, 243
 20, 134, 135, 145, 144, 234, 235, 245, 244
 21, 135, 136, 146, 145, 235, 236, 246, 245
 22, 136, 137, 147, 146, 236, 237, 247, 246
 23, 137, 138, 148, 147, 237, 238, 248, 247
 24, 138, 139, 149, 148, 238, 239, 249, 248
 25, 141, 142, 152, 151, 241, 242, 252, 251
 26, 142, 143, 153, 152, 242, 243, 253, 252
 27, 143, 144, 154, 153, 243, 244, 254, 253
 28, 144, 145, 155, 154, 244, 245, 255, 254
 29, 145, 146, 156, 155, 245, 246, 256, 255
 30, 146, 147, 157, 156, 246, 247, 257, 256
 31, 147, 148, 158, 157, 247, 248, 258, 257
 32, 148, 149, 159, 158, 248, 249, 259, 258
 33, 151, 152, 162, 161, 251, 252, 262, 261
 34, 152, 153, 163, 162, 252, 253, 263, 262
 35, 153, 154, 164, 163, 253, 254, 264, 263
 36, 154, 155, 165, 164, 254, 255, 265, 264
 37, 155, 156, 166, 165, 255, 256, 266, 265
 38, 156, 157, 167, 166, 256, 257, 267, 266
 39, 157, 158, 168, 167, 257, 258, 268, 267
 40, 158, 159, 169, 168, 258, 259, 269, 268
 41, 161, 162, 172, 171, 261, 262, 272, 271
 42, 162, 163, 173, 172, 262, 263, 273, 272
 43, 163, 164, 174, 173, 263, 264, 274, 273
 44, 164, 165, 175, 174, 264, 265, 275, 274
 45, 165, 166, 176, 175, 265, 266, 276, 275
 46, 166, 167, 177, 176, 266, 267, 277, 276
 47, 167, 168, 178, 177, 267, 268, 278, 277
 48, 168, 169, 179, 178, 268, 269, 279, 278
 49, 171, 172, 182, 181, 271, 272, 282, 281
 50, 172, 173, 183, 182, 272, 273, 283, 282
 51, 173, 174, 184, 183, 273, 274, 284, 283
 52, 174, 175, 185, 184, 274, 275, 285, 284
 53, 175, 176, 186, 185, 275, 276, 286, 285
 54, 176, 177, 187, 186, 276, 277, 287, 286
 55, 177, 178, 188, 187, 277, 278, 288, 287
 56, 178, 179, 189, 188, 278, 279, 289, 288
 57, 181, 182, 192, 191, 281, 282, 292, 291
 58, 182, 183, 193, 192, 282, 283, 293, 292
 59, 183, 184, 194, 193, 283, 284, 294, 293
 60, 184, 185, 195, 194, 284, 285, 295, 294
 61, 185, 186, 196, 195, 285, 286, 296, 295
 62, 186, 187, 197, 196, 286, 287, 297, 296
 63, 187, 188, 198, 197, 287, 288, 298, 297
 64, 188, 189, 199, 198, 288, 289, 299, 298
 65, 211, 212, 222, 221, 311, 312, 322, 321
 66, 212, 213, 223, 222, 312, 313, 323, 322
 67, 213, 214, 224, 223, 313, 314, 324, 323
 68, 214, 215, 225, 224, 314, 315, 325, 324
 69, 215, 216, 226, 225, 315, 316, 326, 325
 70, 216, 217, 227, 226, 316, 317, 327, 326
 71, 217, 218, 228, 227, 317, 318, 328, 327
 72, 218, 219, 229, 228, 318, 319, 329, 328
 73, 221, 222, 232, 231, 321, 322, 332, 331
 74, 222, 223, 233, 232, 322, 323, 333, 332
 75, 223, 224, 234, 233, 323, 324, 334, 333
 76, 224, 225, 235, 234, 324, 325, 335, 334
 77, 225, 226, 236, 235, 325, 326, 336, 335
 78, 226, 227, 237, 236, 326, 327, 337, 336
 79, 227, 228, 238, 237, 327, 328, 338, 337
 80, 228, 229, 239, 238, 328, 329, 339, 338
 81, 231, 232, 242, 241, 331, 332, 342, 341
 82, 232, 233, 243, 242, 332, 333, 343, 342
 83, 233, 234, 244, 243, 333, 334, 344, 343
 84, 234, 235, 245, 244, 334, 335, 345, 344
 85, 235, 236, 246, 245, 335, 336, 346, 345
 86, 236, 237, 247, 246, 336, 337, 347, 346
 87, 237, 238, 248, 247, 337, 338, 348, 347
 88, 238, 239, 249, 248, 338, 339, 349, 348
 89, 241, 242, 252, 251, 341, 342, 352, 351
 90, 242, 243, 253, 252, 342, 343, 353, 352
 91, 243, 244, 254, 253, 343, 344, 354, 353
 92, 244, 245, 255, 254, 344, 345, 355, 354
 93, 245, 246, 256, 255, 345, 346, 356, 355
 94, 246, 247, 257, 256, 346, 347, 357, 356
 95, 247, 248, 258, 257, 347, 348, 358, 357
 96, 248, 249, 259, 258, 348, 349, 359, 358
 97, 251, 252, 262, 261, 351, 352, 362, 361
 98, 252, 253, 263, 262, 352, 353, 363, 362
 99, 253, 254, 264, 263, 353, 354, 364, 363
100, 254, 255, 265, 264, 354, 355, 365, 364
101, 255, 256, 266, 265, 355, 356, 366, 365
102, 256, 257, 267, 266, 356, 357, 367, 366
103, 257, 258, 268, 267, 357, 358, 368, 367
104, 258, 259, 269, 268, 358, 359, 369, 368
105, 261, 262, 272, 271, 361, 362, 372, 371
106, 262, 263, 273, 272, 362, 363, 373, 372
107, 263, 264, 274, 273, 363, 364, 374, 373
108, 264, 265, 275, 274, 364, 365, 375, 374
109, 265, 266, 276, 275, 365, 366, 376, 375
110, 266, 267, 277, 276, 366, 367, 377, 376
111, 267, 268, 278, 277, 367, 368, 378, 377
112, 268, 269, 279, 278, 368, 369, 379, 378
113, 271, 272, 282, 281, 371, 372, 382, 381
114, 272, 273, 283, 282, 372, 373, 383, 382
115, 273, 274, 284, 283, 373, 374, 384, 383
116, 274, 275, 285, 284, 374, 375, 385, 384
117, 275, 276, 286, 285, 375, 376, 386, 385
118, 276, 277, 287, 286, 376, 377, 387, 386
119, 277, 278, 288, 287, 377, 378, 388, 387
120, 278, 279, 289, 288, 378, 379, 389, 388
121, 281, 282, 292, 291, 381, 382, 392, 391
122, 282, 283, 293, 292, 382, 383, 393, 392
123, 283, 284, 294, 293, 383, 384, 394, 393
124, 284, 285, 295, 294, 384, 385, 395, 394
125, 285, 286, 296, 295, 385, 386, 396, 395
126, 286, 287, 297, 296, 386, 387, 397, 396
127, 287, 288, 298, 297, 387, 388, 398, 397
128, 288, 289, 299, 298, 388, 389, 399, 398
129, 311, 312, 322, 321, 411, 412, 422, 421
130, 312, 313, 323, 322, 412, 413, 423, 422
131, 313, 314, 324, 323, 413, 414, 424, 423
132, 314, 315, 325, 324, 414, 415, 425, 424
133, 315, 316, 326, 325, 415, 416, 426, 425
134, 316, 317, 327, 326, 416, 417, 427, 426
135, 317, 318, 328, 327, 417, 418, 428, 427
136, 318, 319, 329, 328, 418, 419, 429, 428
137, 321, 322, 332, 331, 421, 422, 432, 431
138, 322, 323, 333, 332, 422, 423, 433, 432
139, 323, 324, 334, 333, 423, 424, 434, 433
140, 324, 325, 335, 334, 424, 425, 435, 434
141, 325, 326, 336, 335, 425, 426, 436, 435
142, 326, 327, 337, 336, 426, 427, 437, 436
143, 327, 328, 338, 337, 427, 428, 438, 437
144, 328, 329, 339, 338, 428, 429, 439, 438
145, 331, 332, 342, 341, 431, 432, 442, 441
146, 332, 333, 343, 342, 432, 433, 443, 442
147, 333, 334, 344, 343, 433, 434, 444, 443
148, 334, 335, 345, 344, 434, 435, 445, 444
149, 335, 336, 346, 345, 435, 436, 446, 445
150, 336, 337, 347, 346, 436, 437, 447, 446
151, 337, 338, 348, 347, 437, 438, 448, 447
152, 338, 339, 349, 348, 438, 439, 449, 448
153, 341, 342, 352, 351, 441, 442, 452, 451
154, 342, 343, 353, 352, 442, 443, 453, 452
155, 343, 344, 354, 353, 443, 444, 454, 453
156, 344, 345, 355, 354, 444, 445, 455, 454
157, 345, 346, 356, 355, 445, 446, 456, 455
158, 346, 347, 357, 356, 446, 447, 457, 456
159, 347, 348, 358, 357, 447, 448, 458, 457
160, 348, 349, 359, 358, 448, 449, 459, 458
161, 351, 352, 362, 361, 451, 452, 462, 461
162, 352, 353, 363, 362, 452, 453, 463, 462
163, 353, 354, 364, 363, 453, 454, 464, 463
164, 354, 355, 365, 364, 454, 455, 465, 464
165, 355, 356, 366, 365, 455, 456, 466, 465
166, 356, 357, 367, 366, 456, 457, 467, 466
167, 357, 358, 368, 367, 457, 458, 468, 467
168, 358, 359, 369, 368, 458, 459, 469, 468
169, 361, 362, 372, 371, 461, 462, 472, 471
170, 362, 363, 373, 372, 462, 463, 473, 472
171, 363, 364, 374, 373, 463, 464, 474, 473
172, 364, 365, 375, 374, 464, 465, 475, 474
173, 365, 366, 376, 375, 465, 466, 476, 475
174, 366, 367, 377, 376, 466, 467, 477, 476
175, 367, 368, 378, 377, 467, 468, 478, 477
176, 368, 369, 379, 378, 468, 469, 479, 478
177, 371, 372, 382, 381, 471, 472, 482, 481
178, 372, 373, 383, 382, 472, 473, 483, 482
179, 373, 374, 384, 383, 473, 474, 484, 483
180, 374, 375, 385, 384, 474, 475, 485, 484
181, 375, 376, 386, 385, 475, 476, 486, 485
182, 376, 377, 387, 386, 476, 477, 487, 486
183, 377, 378, 388, 387, 477, 478, 488, 487
184, 378, 379, 389, 388, 478, 479, 489, 488
185, 381, 382, 392, 391, 481, 482, 492, 491
186, 382, 383, 393, 392, 482, 483, 493, 492
187, 383, 384, 394, 393, 483, 484, 494, 493
188, 384, 385, 395, 394, 484, 485, 495, 494
189, 385, 386, 396, 395, 485, 486, 496, 495
190, 386, 387, 397, 396, 486, 487, 497, 496
191, 387, 388, 398, 397, 487, 488, 498, 497
192, 388, 389, 399, 398, 488, 489, 499, 498
193, 411, 412, 422, 421, 511, 512, 522, 521
194, 412, 413, 423, 422, 512, 513, 523, 522
195, 413, 414, 424, 423, 513, 514, 524, 523
196, 414, 415, 425, 424, 514, 515, 525, 524
197, 415, 416, 426, 425, 515, 516, 526, 525
198, 416, 417, 427, 426, 516, 517, 527, 526
199, 417, 418, 428, 427, 517, 518, 528, 527
200, 418, 419, 429, 428, 518, 519, 529, 528
201, 421, 422, 432, 431, 521, 522, 532, 531
202, 422, 423, 433, 432, 522, 523, 533, 532
203, 423, 424, 434, 433, 523, 524, 534, 533
204, 424, 425, 435, 434, 524, 525, 535, 534
205, 425, 426, 436, 435, 525, 526, 536, 535
206, 426, 427, 437, 436, 526, 527, 537, 536
207, 427, 428, 438, 437, 527, 528, 538, 537
208, 428, 429, 439, 438, 528, 529, 539, 538
209, 431, 432, 442, 441, 531, 532, 542, 541
210, 432, 433, 443, 442, 532, 533, 543, 542
211, 433, 434, 444, 443, 533, 534, 544, 543
212, 434, 435, 445, 444, 534, 535, 545, 544
213, 435, 436, 446, 445, 535, 536, 546, 545
214, 436, 437, 447, 446, 536, 537, 547, 546
215, 437, 438, 448, 447, 537, 538, 548, 547
216, 438, 439, 449, 448, 538, 539, 549, 548
217, 441, 442, 452, 451, 541, 542, 552, 551
218, 442, 443, 453, 452, 542, 543, 553, 552
219, 443, 444, 454, 453, 543, 544, 554, 553
220, 444, 445, 455, 454, 544, 545, 555, 554
221, 445, 446, 456, 455, 545, 546, 556, 555
222, 446, 447, 457, 456, 546, 547, 557, 556
223, 447, 448, 458, 457, 547, 548, 558, 557
224, 448, 449, 459, 458, 548, 549, 559, 558
225, 451, 452, 462, 461, 551, 552, 562, 561
226, 452, 453, 463, 462, 552, 553, 563, 562
227, 453, 454, 464, 463, 553, 554, 564, 563
228, 454, 455, 465, 464, 554, 555, 565, 564
229, 455, 456, 466, 465, 555, 556, 566, 565
230, 456, 457, 467, 466, 556, 557, 567, 566
231, 457, 458, 468, 467, 557, 558, 568, 567
232, 458, 459, 469, 468, 558, 559, 569, 568
233, 461, 462, 472, 471, 561, 562, 572, 571
234, 462, 463, 473, 472, 562, 563, 573, 572
235, 463, 464, 474, 473, 563, 564, 574, 573
236, 464, 465, 475, 474, 564, 565, 575, 574
237, 465, 466, 476, 475, 565, 566, 576, 575
238, 466, 467, 477, 476, 566, 567, 577, 576
239, 467, 468, 478, 477, 567, 568, 578, 577
240, 468, 469, 479, 478, 568, 569, 579, 578
241, 471, 472, 482, 481, 571, 572, 582, 581
242, 472, 473, 483, 482, 572, 573, 583, 582
243, 473, 474, 484, 483, 573, 574, 584, 583
244, 474, 475, 485, 484, 574, 575, 585, 584
245, 475, 476, 486, 485, 575, 576, 586, 585
246, 476, 477, 487, 486, 576, 577, 587, 586
247, 477, 478, 488, 487, 577, 578, 588, 587
248, 478, 479, 489, 488, 578, 579, 589, 588
249, 481, 482, 492, 491, 581, 582, 592, 591
250, 482, 483, 493, 492, 582, 583, 593, 592
251, 483, 484, 494, 493, 583, 584, 594, 593
252, 484, 485, 495, 494, 584, 585, 595, 594
253, 485, 486, 496, 495, 585, 586, 596, 595
254, 486, 487, 497, 496, 586, 587, 597, 596
255, 487, 488, 498, 497, 587, 588, 598, 597
256, 488, 489, 499, 498, 588, 589, 599, 598
257, 511, 512, 522, 521, 611, 612, 622, 621
258, 512, 513, 523, 522, 612, 613, 623, 622
259, 513, 514, 524, 523, 613, 614, 624, 623
260, 514, 515, 525, 524, 614, 615, 625, 624
261, 515, 516, 526, 525, 615, 616, 626, 625
262, 516, 517, 527, 526, 616, 617, 627, 626
263, 517, 518, 528, 527, 617, 618, 628, 627
264, 518, 519, 529, 528, 618, 619, 629, 628
265, 521, 522, 532, 531, 621, 622, 632, 631
266, 522, 523, 533, 532, 622, 623, 633, 632
267, 523, 524, 534, 533, 623, 624, 634, 633
268, 524, 525, 535, 534, 624, 625, 635, 634
269, 525, 526, 536, 535, 625, 626, 636, 635
270, 526, 527, 537, 536, 626, 627, 637, 636
271, 527, 528, 538, 537, 627, 628, 638, 637
272, 528, 529, 539, 538, 628, 629, 639, 638
273, 531, 532, 542, 541, 631, 632, 642, 641
274, 532, 533, 543, 542, 632, 633, 643, 642
275, 533, 534, 544, 543, 633, 634, 644, 643
276, 534, 535, 545, 544, 634, 635, 645, 644
277, 535, 536, 546, 545, 635, 636, 646, 645
278, 536, 537, 547, 546, 636, 637, 647, 646
279, 537, 538, 548, 547, 637, 638, 648, 647
280, 538, 539, 549, 548, 638, 639, 649, 648
281, 541, 542, 552, 551, 641, 642, 652, 651
282, 542, 543, 553, 552, 642, 643, 653, 652
283, 543, 544, 554, 553, 643, 644, 654, 653
284, 544, 545, 555, 554, 644, 645, 655, 654
285, 545, 546, 556, 555, 645, 646, 656, 655
286, 546, 547, 557, 556, 646, 647, 657, 656
287, 547, 548, 558, 557, 647, 648, 658, 657
288, 548, 549, 559, 558, 648, 649, 659, 658
289, 551, 552, 562, 561, 651, 652, 662, 661
290, 552, 553, 563, 562, 652, 653, 663, 662
291, 553, 554, 564, 563, 653, 654, 664, 663
292, 554, 555, 565, 564, 654, 655, 665, 664
293, 555, 556, 566, 565, 655, 656, 666, 665
294, 556, 557, 567, 566, 656, 657, 667, 666
295, 557, 558, 568, 567, 657, 658, 668, 667
296, 558, 559, 569, 568, 658, 659, 669, 668
297, 561, 562, 572, 571, 661, 662, 672, 671
298, 562, 563, 573, 572, 662, 663, 673, 672
299, 563, 564, 574, 573, 663, 664, 674, 673
300, 564, 565, 575, 574, 664, 665, 675, 674
301, 565, 566, 576, 575, 665, 666, 676, 675
302, 566, 567, 577, 576, 666, 667, 677, 676
303, 567, 568, 578, 577, 667, 668, 678, 677
304, 568, 569, 579, 578, 668, 669, 679, 678
305, 571, 572, 582, 581, 671, 672, 682, 681
306, 572, 573, 583, 582, 672, 673, 683, 682
307, 573, 574, 584, 583, 673, 674, 684, 683
308, 574, 575, 585, 584, 674, 675, 685, 684
309, 575, 576, 586, 585, 675, 676, 686, 685
310, 576, 577, 587, 586, 676, 677, 687, 686
311, 577, 578, 588, 587, 677, 678, 688, 687
312, 578, 579, 589, 588, 678, 679, 689, 688
313, 581, 582, 592, 591, 681, 682, 692, 691
314, 582, 583, 593, 592, 682, 683, 693, 692
315, 583, 584, 594, 593, 683, 684, 694, 693
316, 584, 585, 595, 594, 684, 685, 695, 694
317, 585, 586, 596, 595, 685, 686, 696, 695
318, 586, 587, 597, 596, 686, 687, 697, 696
319, 587, 588, 598, 597, 687, 688, 698, 697
320, 588, 589, 599, 598, 688, 689, 699, 698
321, 611, 612, 622, 621, 711, 712, 722, 721
322, 612, 613, 623, 622, 712, 713, 723, 722
323, 613, 614, 624, 623, 713, 714, 724, 723
324, 614, 615, 625, 624, 714, 715, 725, 724
325, 615, 616, 626, 625, 715, 716, 726, 725
326, 616, 617, 627, 626, 716, 717, 727, 726
327, 617, 618, 628, 627, 717, 718, 728, 727
328, 618, 619, 629, 628, 718, 719, 729, 728
329, 621, 622, 632, 631, 721, 722, 732, 731
330, 622, 623, 633, 632, 722, 723, 733, 732
331, 623, 624, 634, 633, 723, 724, 734, 733
332, 624, 625, 635, 634, 724, 725, 735, 734
333, 625, 626, 636, 635, 725, 726, 736, 735
334, 626, 627, 637, 636, 726, 727, 737, 736
335, 627, 628, 638, 637, 727, 728, 738, 737
336, 628, 629, 639, 638, 728, 729, 739, 738
337, 631, 632, 642, 641, 731, 732, 742, 741
338, 632, 633, 643, 642, 732, 733, 743, 742
339, 633, 634, 644, 643, 733, 734, 744, 743
340, 634, 635, 645, 644, 734, 735, 745, 744
341, 635, 636, 646, 645, 735, 736, 746, 745
342, 636, 637, 647, 646, 736, 737, 747, 746
343, 637, 638, 648, 647, 737, 738, 748, 747
344, 638, 639, 649, 648, 738, 739, 749, 748
345, 641, 642, 652, 651, 741, 742, 752, 751
346, 642, 643, 653, 652, 742, 743, 753, 752
347, 643, 644, 654, 653, 743, 744, 754, 753
348, 644, 645, 655, 654, 744, 745, 755, 754
349, 645, 646, 656, 655, 745, 746, 756, 755
350, 646, 647, 657, 656, 746, 747, 757, 756
351, 647, 648, 658, 657, 747, 748, 758, 757
352, 648, 649, 659, 658, 748, 749, 759, 758
353, 651, 652, 662, 661, 751, 752, 762, 761
354, 652, 653, 663, 662, 752, 753, 763, 762
355, 653, 654, 664, 663, 753, 754, 764, 763
356, 654, 655, 665, 664, 754, 755, 765, 764
357, 655, 656, 666, 665, 755, 756, 766, 765
358, 656, 657, 667, 666, 756, 757, 767, 766
359, 657, 658, 668, 667, 757, 758, 768, 767
360, 658, 659, 669, 668, 758, 759, 769, 768
361, 661, 662, 672, 671, 761, 762, 772, 771
362, 662, 663, 673, 672, 762, 763, 773, 772
363, 663, 664, 674, 673, 763, 764, 774, 773
364, 664, 665, 675, 674, 764, 765, 775, 774
365, 665, 666, 676, 675, 765, 766, 776, 775
366, 666, 667, 677, 676, 766, 767, 777, 776
367, 667, 668, 678, 677, 767, 768, 778, 777
368, 668, 669, 679, 678, 768, 769, 779, 778
369, 671, 672, 682, 681, 771, 772, 782, 781
370, 672, 673, 683, 682, 772, 773, 783, 782
371, 673, 674, 684, 683, 773, 774, 784, 783
372, 674, 675, 685, 684, 774, 775, 785, 784
373, 675, 676, 686, 685, 775, 776, 786, 785
374, 676, 677, 687, 686, 776, 777, 787, 786
375, 677, 678, 688, 687, 777, 778, 788, 787
376, 678, 679, 689, 688, 778, 779, 789, 788
377, 681, 682, 692, 691, 781, 782, 792, 791
378, 682, 683, 693, 692, 782, 783, 793, 792
379, 683, 684, 694, 693, 783, 784, 794, 793
380, 684, 685, 695, 694, 784, 785, 795, 794
381, 685, 686, 696, 695, 785, 786, 796, 795
382, 686, 687, 697, 696, 786, 787, 797, 796
383, 687, 688, 698, 697, 787, 788, 798, 797
384, 688, 689, 699, 698, 788, 789, 799, 798
385, 711, 712, 722, 721, 811, 812, 822, 821
386, 712, 713, 723, 722, 812, 813, 823, 822
387, 713, 714, 724, 723, 813, 814, 824, 823
388, 714, 715, 725, 724, 814, 815, 825, 824
389, 715, 716, 726, 725, 815, 816, 826, 825
390, 716, 717, 727, 726, 816, 817, 827, 826
391, 717, 718, 728, 727, 817, 818, 828, 827
392, 718, 719, 729, 728, 818, 819, 829, 828
393, 721, 722, 732, 731, 821, 822, 832, 831
394, 722, 723, 733, 732, 822, 823, 833, 832
395, 723, 724, 734, 733, 823, 824, 834, 833
396, 724, 725, 735, 734, 824, 825, 835, 834
397, 725, 726, 736, 735, 825, 826, 836, 835
398, 726, 727, 737, 736, 826, 827, 837, 836
399, 727, 728, 738, 737, 827, 828, 838, 837
400, 728, 729, 739, 738, 828, 829, 839, 838
401, 731, 732, 742, 741, 831, 832, 842, 841
402, 732, 733, 743, 742, 832, 833, 843, 842
403, 733, 734, 744, 743, 833, 834, 844, 843
404, 734, 735, 745, 744, 834, 835, 845, 844
405, 735, 736, 746, 745, 835, 836, 846, 845
406, 736, 737, 747, 746, 836, 837, 847, 846
407, 737, 738, 748, 747, 837, 838, 848, 847
408, 738, 739, 749, 748, 838, 839, 849, 848
409, 741, 742, 752, 751, 841, 842, 852, 851
410, 742, 743, 753, 752, 842, 843, 853, 852
411, 743, 744, 754, 753, 843, 844, 854, 853
412, 744, 745, 755, 754, 844, 845, 855, 854
413, 745, 746, 756, 755, 845, 846, 856, 855
414, 746, 747, 757, 756, 846, 847, 857, 856
415, 747, 748, 758, 757, 847, 848, 858, 857
416, 748, 749, 759, 758, 848, 849, 859, 858
417, 751, 752, 762, 761, 851, 852, 862, 861
418, 752, 753, 763, 762, 852, 853, 863, 862
419, 753, 754, 764, 763, 853, 854, 864, 863
420, 754, 755, 765, 764, 854, 855, 865, 864
421, 755, 756, 766, 765, 855, 856, 866, 865
422, 756, 757, 767, 766, 856, 857, 867, 866
423, 757, 758, 768, 767, 857, 858, 868, 867
424, 758, 759, 769, 768, 858, 859, 869, 868
425, 761, 762, 772, 771, 861, 862, 872, 871
426, 762, 763, 773, 772, 862, 863, 873, 872
427, 763, 764, 774, 773, 863, 864, 874, 873
428, 764, 765, 775, 774, 864, 865, 875, 874
429, 765, 766, 776, 775, 865, 866, 876, 875
430, 766, 767, 777, 776, 866, 867, 877, 876
431, 767, 768, 778, 777, 867, 868, 878, 877
432, 768, 769, 779, 778, 868, 869, 879, 878
433, 771, 772, 782, 781, 871, 872, 882, 881
434, 772, 773, 783, 782, 872, 873, 883, 882
435, 773, 774, 784, 783, 873, 874, 884, 883
436, 774, 775, 785, 784, 874, 875, 885, 884
437, 775, 776, 786, 785, 875, 876, 886, 885
438, 776, 777, 787, 786, 876, 877, 887, 886
439, 777, 778, 788, 787, 877, 878, 888, 887
440, 778, 779, 789, 788, 878, 879, 889, 888
441, 781, 782, 792, 791, 881, 882, 892, 891
442, 782, 783, 793, 792, 882, 883, 893, 892
443, 783, 784, 794, 793, 883, 884, 894, 893
444, 784, 785, 795, 794, 884, 885, 895, 894
445, 785, 786, 796, 795, 885, 886, 896, 895
446, 786, 787, 797, 796, 886, 887, 897, 896
447, 787, 788, 798, 797, 887, 888, 898, 897
448, 788, 789, 799, 798, 888, 889, 899, 898
449, 811, 812, 822, 821, 911, 912, 922, 921
450, 812, 813, 823, 822, 912, 913, 923, 922
451, 813, 814, 824, 823, 913, 914, 924, 923
452, 814, 815, 825, 824, 914, 915, 925, 924
453, 815, 816, 826, 825, 915, 916, 926, 925
454, 816, 817, 827, 826, 916, 917, 927, 926
455, 817, 818, 828, 827, 917, 918, 928, 927
456, 818, 819, 829, 828, 918, 919, 929, 928
457, 821, 822, 832, 831, 921, 922, 932, 931
458, 822, 823, 833, 832, 922, 923, 933, 932
459, 823, 824, 834, 833, 923, 924, 934, 933
460, 824, 825, 835, 834, 924, 925, 935, 934
461, 825, 826, 836, 835, 925, 926, 936, 935
462, 826, 827, 837, 836, 926, 927, 937, 936
463, 827, 828, 838, 837, 927, 928, 938, 937
464, 828, 829, 839, 838, 928, 929, 939, 938
465, 831, 832, 842, 841, 931, 932, 942, 941
466, 832, 833, 843, 842, 932, 933, 943, 942
467, 833, 834, 844, 843, 933, 934, 944, 943
468, 834, 835, 845, 844, 934, 935, 945, 944
469, 835, 836, 846, 845, 935, 936, 946, 945
470, 836, 837, 847, 846, 936, 937, 947, 946
471, 837, 838, 848, 847, 937, 938, 948, 947
472, 838, 839, 849, 848, 938, 939, 949, 948
473, 841, 842, 852, 851, 941, 942, 952, 951
474, 842, 843, 853, 852, 942, 943, 953, 952
475, 843, 844, 854, 853, 943, 944, 954, 953
476, 844, 845, 855, 854, 944, 945, 955, 954
477, 845, 846, 856, 855, 945, 946, 956, 955
478, 846, 847, 857, 856, 946, 947, 957, 956
479, 847, 848, 858, 857, 947, 948, 958, 957
480, 848, 849, 859, 858, 948, 949, 959, 958
481, 851, 852, 862, 861, 951, 952, 962, 961
482, 852, 853, 863, 862, 952, 953, 963, 962
483, 853, 854, 864, 863, 953, 954, 964, 963
484, 854, 855, 865, 864, 954, 955, 965, 964
485, 855, 856, 866, 865, 955, 956, 966, 965
486, 856, 857, 867, 866, 956, 957, 967, 966
487, 857, 858, 868, 867, 957, 958, 968, 967
488, 858, 859, 869, 868, 958, 959, 969, 968
489, 861, 862, 872, 871, 961, 962, 972, 971
490, 862, 863, 873, 872, 962, 963, 973, 972
491, 863, 864, 874, 873, 963, 964, 974, 973
492, 864, 865, 875, 874, 964, 965, 975, 974
493, 865, 866, 876, 875, 965, 966, 976, 975
494, 866, 867, 877, 876, 966, 967, 977, 976
495, 867, 868, 878, 877, 967, 968, 978, 977
496, 868, 869, 879, 878, 968, 969, 979, 978
497, 871, 872, 882, 881, 971, 972, 982, 981
498, 872, 873, 883, 882, 972, 973, 983, 982
499, 873, 874, 884, 883, 973, 974, 984, 983
500, 874, 875, 885, 884, 974, 975, 985, 984
501, 875, 876, 886, 885, 975, 976, 986, 985
502, 876, 877, 887, 886, 976, 977, 987, 986
503, 877, 878, 888, 887, 977, 978, 988, 987
504, 878, 879, 889, 888, 978, 979, 989, 988
505, 881, 882, 892, 891, 981, 982, 992, 991
506, 882, 883, 893, 892, 982, 983, 993, 992
507, 883, 884, 894, 893, 983, 984, 994, 993
508, 884, 885, 895, 894, 984, 985, 995, 994
509, 885, 886, 896, 895, 985, 986, 996, 995
510, 886, 887, 897, 896, 986, 987, 997, 996
511, 887, 888, 898, 897, 987, 988, 998, 997
512, 888, 889, 899, 898, 988, 989, 999, 998
**
*SOLID SECTION,ELSET=All,MATERIAL=U1
1.0
*MATERIAL,NAME=U1
*USER MATERIAL,TYPE=mechanical,constants=2
4.8293E8,0.3
**
*STEP, name=Step-1, nlgeom=yes
*Static, direct
*CONTROLS, PARAMETERS=TIME INCREMENTATION
8,10,9,16,10,4,50,15
*Boundary
Facez_8,1,2,0.0
Facez_0,3,,0.0
Facex_0,1,,0.0
Facey_0,2,,0.0
*CLOAD
Load1,3,-117.1875
Load2,3,-58.59375
Load4,3,-29.296875
*Restart, write, overlay
**
*output, field, variable=preselect,Freq=1
*element output
*output, history, frequency=1
*node output, nset=Facez_8
RF,U
*end step




